%!PS-Adobe-2.0 EPSF-2.0
%%Title: D:\MRA\splc-challenge-mspl\UMLDiagram\productline.dia
%%Creator: Dia v0.97.2
%%CreationDate: Tue Jul 17 09:23:43 2018
%%For: Maya
%%Orientation: Portrait
%%Magnification: 1.0000
%%BoundingBox: 0 0 1342 755
%%BeginSetup
%%EndSetup
%%EndComments
%%BeginProlog
[ /.notdef /.notdef /.notdef /.notdef /.notdef /.notdef /.notdef /.notdef /.notdef /.notdef
/.notdef /.notdef /.notdef /.notdef /.notdef /.notdef /.notdef /.notdef /.notdef /.notdef
/.notdef /.notdef /.notdef /.notdef /.notdef /.notdef /.notdef /.notdef /.notdef /.notdef
/.notdef /.notdef /space /exclam /quotedbl /numbersign /dollar /percent /ampersand /quoteright
/parenleft /parenright /asterisk /plus /comma /hyphen /period /slash /zero /one
/two /three /four /five /six /seven /eight /nine /colon /semicolon
/less /equal /greater /question /at /A /B /C /D /E
/F /G /H /I /J /K /L /M /N /O
/P /Q /R /S /T /U /V /W /X /Y
/Z /bracketleft /backslash /bracketright /asciicircum /underscore /quoteleft /a /b /c
/d /e /f /g /h /i /j /k /l /m
/n /o /p /q /r /s /t /u /v /w
/x /y /z /braceleft /bar /braceright /asciitilde /.notdef /.notdef /.notdef
/.notdef /.notdef /.notdef /.notdef /.notdef /.notdef /.notdef /.notdef /.notdef /.notdef
/.notdef /.notdef /.notdef /.notdef /.notdef /.notdef /.notdef /.notdef /.notdef /.notdef
/.notdef /.notdef /.notdef /.notdef /.notdef /.notdef /.notdef /.notdef /.notdef /.notdef
/space /exclamdown /cent /sterling /currency /yen /brokenbar /section /dieresis /copyright
/ordfeminine /guillemotleft /logicalnot /hyphen /registered /macron /degree /plusminus /twosuperior /threesuperior
/acute /mu /paragraph /periodcentered /cedilla /onesuperior /ordmasculine /guillemotright /onequarter /onehalf
/threequarters /questiondown /Agrave /Aacute /Acircumflex /Atilde /Adieresis /Aring /AE /Ccedilla
/Egrave /Eacute /Ecircumflex /Edieresis /Igrave /Iacute /Icircumflex /Idieresis /Eth /Ntilde
/Ograve /Oacute /Ocircumflex /Otilde /Odieresis /multiply /Oslash /Ugrave /Uacute /Ucircumflex
/Udieresis /Yacute /Thorn /germandbls /agrave /aacute /acircumflex /atilde /adieresis /aring
/ae /ccedilla /egrave /eacute /ecircumflex /edieresis /igrave /iacute /icircumflex /idieresis
/eth /ntilde /ograve /oacute /ocircumflex /otilde /odieresis /divide /oslash /ugrave
/uacute /ucircumflex /udieresis /yacute /thorn /ydieresis] /isolatin1encoding exch def
/cp {closepath} bind def
/c {curveto} bind def
/f {fill} bind def
/a {arc} bind def
/ef {eofill} bind def
/ex {exch} bind def
/gr {grestore} bind def
/gs {gsave} bind def
/sa {save} bind def
/rs {restore} bind def
/l {lineto} bind def
/m {moveto} bind def
/rm {rmoveto} bind def
/n {newpath} bind def
/s {stroke} bind def
/sh {show} bind def
/slc {setlinecap} bind def
/slj {setlinejoin} bind def
/slw {setlinewidth} bind def
/srgb {setrgbcolor} bind def
/rot {rotate} bind def
/sc {scale} bind def
/sd {setdash} bind def
/ff {findfont} bind def
/sf {setfont} bind def
/scf {scalefont} bind def
/sw {stringwidth pop} bind def
/tr {translate} bind def

/ellipsedict 8 dict def
ellipsedict /mtrx matrix put
/ellipse
{ ellipsedict begin
   /endangle exch def
   /startangle exch def
   /yrad exch def
   /xrad exch def
   /y exch def
   /x exch def   /savematrix mtrx currentmatrix def
   x y tr xrad yrad sc
   0 0 1 startangle endangle arc
   savematrix setmatrix
   end
} def

/mergeprocs {
dup length
3 -1 roll
dup
length
dup
5 1 roll
3 -1 roll
add
array cvx
dup
3 -1 roll
0 exch
putinterval
dup
4 2 roll
putinterval
} bind def
/Times-Roman-latin1
    /Times-Roman findfont
    dup length dict begin
	{1 index /FID ne {def} {pop pop} ifelse} forall
	/Encoding isolatin1encoding def
    currentdict end
definefont pop
/Times-Italic-latin1
    /Times-Italic findfont
    dup length dict begin
	{1 index /FID ne {def} {pop pop} ifelse} forall
	/Encoding isolatin1encoding def
    currentdict end
definefont pop
/Times-Bold-latin1
    /Times-Bold findfont
    dup length dict begin
	{1 index /FID ne {def} {pop pop} ifelse} forall
	/Encoding isolatin1encoding def
    currentdict end
definefont pop
/Times-BoldItalic-latin1
    /Times-BoldItalic findfont
    dup length dict begin
	{1 index /FID ne {def} {pop pop} ifelse} forall
	/Encoding isolatin1encoding def
    currentdict end
definefont pop
/AvantGarde-Gothic-latin1
    /AvantGarde-Gothic findfont
    dup length dict begin
	{1 index /FID ne {def} {pop pop} ifelse} forall
	/Encoding isolatin1encoding def
    currentdict end
definefont pop
/AvantGarde-BookOblique-latin1
    /AvantGarde-BookOblique findfont
    dup length dict begin
	{1 index /FID ne {def} {pop pop} ifelse} forall
	/Encoding isolatin1encoding def
    currentdict end
definefont pop
/AvantGarde-Demi-latin1
    /AvantGarde-Demi findfont
    dup length dict begin
	{1 index /FID ne {def} {pop pop} ifelse} forall
	/Encoding isolatin1encoding def
    currentdict end
definefont pop
/AvantGarde-DemiOblique-latin1
    /AvantGarde-DemiOblique findfont
    dup length dict begin
	{1 index /FID ne {def} {pop pop} ifelse} forall
	/Encoding isolatin1encoding def
    currentdict end
definefont pop
/Bookman-Light-latin1
    /Bookman-Light findfont
    dup length dict begin
	{1 index /FID ne {def} {pop pop} ifelse} forall
	/Encoding isolatin1encoding def
    currentdict end
definefont pop
/Bookman-LightItalic-latin1
    /Bookman-LightItalic findfont
    dup length dict begin
	{1 index /FID ne {def} {pop pop} ifelse} forall
	/Encoding isolatin1encoding def
    currentdict end
definefont pop
/Bookman-Demi-latin1
    /Bookman-Demi findfont
    dup length dict begin
	{1 index /FID ne {def} {pop pop} ifelse} forall
	/Encoding isolatin1encoding def
    currentdict end
definefont pop
/Bookman-DemiItalic-latin1
    /Bookman-DemiItalic findfont
    dup length dict begin
	{1 index /FID ne {def} {pop pop} ifelse} forall
	/Encoding isolatin1encoding def
    currentdict end
definefont pop
/Courier-latin1
    /Courier findfont
    dup length dict begin
	{1 index /FID ne {def} {pop pop} ifelse} forall
	/Encoding isolatin1encoding def
    currentdict end
definefont pop
/Courier-Oblique-latin1
    /Courier-Oblique findfont
    dup length dict begin
	{1 index /FID ne {def} {pop pop} ifelse} forall
	/Encoding isolatin1encoding def
    currentdict end
definefont pop
/Courier-Bold-latin1
    /Courier-Bold findfont
    dup length dict begin
	{1 index /FID ne {def} {pop pop} ifelse} forall
	/Encoding isolatin1encoding def
    currentdict end
definefont pop
/Courier-BoldOblique-latin1
    /Courier-BoldOblique findfont
    dup length dict begin
	{1 index /FID ne {def} {pop pop} ifelse} forall
	/Encoding isolatin1encoding def
    currentdict end
definefont pop
/Helvetica-latin1
    /Helvetica findfont
    dup length dict begin
	{1 index /FID ne {def} {pop pop} ifelse} forall
	/Encoding isolatin1encoding def
    currentdict end
definefont pop
/Helvetica-Oblique-latin1
    /Helvetica-Oblique findfont
    dup length dict begin
	{1 index /FID ne {def} {pop pop} ifelse} forall
	/Encoding isolatin1encoding def
    currentdict end
definefont pop
/Helvetica-Bold-latin1
    /Helvetica-Bold findfont
    dup length dict begin
	{1 index /FID ne {def} {pop pop} ifelse} forall
	/Encoding isolatin1encoding def
    currentdict end
definefont pop
/Helvetica-BoldOblique-latin1
    /Helvetica-BoldOblique findfont
    dup length dict begin
	{1 index /FID ne {def} {pop pop} ifelse} forall
	/Encoding isolatin1encoding def
    currentdict end
definefont pop
/Helvetica-Narrow-latin1
    /Helvetica-Narrow findfont
    dup length dict begin
	{1 index /FID ne {def} {pop pop} ifelse} forall
	/Encoding isolatin1encoding def
    currentdict end
definefont pop
/Helvetica-Narrow-Oblique-latin1
    /Helvetica-Narrow-Oblique findfont
    dup length dict begin
	{1 index /FID ne {def} {pop pop} ifelse} forall
	/Encoding isolatin1encoding def
    currentdict end
definefont pop
/Helvetica-Narrow-Bold-latin1
    /Helvetica-Narrow-Bold findfont
    dup length dict begin
	{1 index /FID ne {def} {pop pop} ifelse} forall
	/Encoding isolatin1encoding def
    currentdict end
definefont pop
/Helvetica-Narrow-BoldOblique-latin1
    /Helvetica-Narrow-BoldOblique findfont
    dup length dict begin
	{1 index /FID ne {def} {pop pop} ifelse} forall
	/Encoding isolatin1encoding def
    currentdict end
definefont pop
/NewCenturySchlbk-Roman-latin1
    /NewCenturySchlbk-Roman findfont
    dup length dict begin
	{1 index /FID ne {def} {pop pop} ifelse} forall
	/Encoding isolatin1encoding def
    currentdict end
definefont pop
/NewCenturySchlbk-Italic-latin1
    /NewCenturySchlbk-Italic findfont
    dup length dict begin
	{1 index /FID ne {def} {pop pop} ifelse} forall
	/Encoding isolatin1encoding def
    currentdict end
definefont pop
/NewCenturySchlbk-Bold-latin1
    /NewCenturySchlbk-Bold findfont
    dup length dict begin
	{1 index /FID ne {def} {pop pop} ifelse} forall
	/Encoding isolatin1encoding def
    currentdict end
definefont pop
/NewCenturySchlbk-BoldItalic-latin1
    /NewCenturySchlbk-BoldItalic findfont
    dup length dict begin
	{1 index /FID ne {def} {pop pop} ifelse} forall
	/Encoding isolatin1encoding def
    currentdict end
definefont pop
/Palatino-Roman-latin1
    /Palatino-Roman findfont
    dup length dict begin
	{1 index /FID ne {def} {pop pop} ifelse} forall
	/Encoding isolatin1encoding def
    currentdict end
definefont pop
/Palatino-Italic-latin1
    /Palatino-Italic findfont
    dup length dict begin
	{1 index /FID ne {def} {pop pop} ifelse} forall
	/Encoding isolatin1encoding def
    currentdict end
definefont pop
/Palatino-Bold-latin1
    /Palatino-Bold findfont
    dup length dict begin
	{1 index /FID ne {def} {pop pop} ifelse} forall
	/Encoding isolatin1encoding def
    currentdict end
definefont pop
/Palatino-BoldItalic-latin1
    /Palatino-BoldItalic findfont
    dup length dict begin
	{1 index /FID ne {def} {pop pop} ifelse} forall
	/Encoding isolatin1encoding def
    currentdict end
definefont pop
/Symbol-latin1
    /Symbol findfont
definefont pop
/ZapfChancery-MediumItalic-latin1
    /ZapfChancery-MediumItalic findfont
    dup length dict begin
	{1 index /FID ne {def} {pop pop} ifelse} forall
	/Encoding isolatin1encoding def
    currentdict end
definefont pop
/ZapfDingbats-latin1
    /ZapfDingbats findfont
    dup length dict begin
	{1 index /FID ne {def} {pop pop} ifelse} forall
	/Encoding isolatin1encoding def
    currentdict end
definefont pop
28.346000 -28.346000 scale
-12.984400 -49.134010 translate
%%EndProlog


0.100000 slw
[] 0 sd
1.000000 1.000000 1.000000 srgb
n 18.780200 31.930700 m 18.780200 35.430700 l 25.715200 35.430700 l 25.715200 31.930700 l f
0.000000 0.000000 0.000000 srgb
n 18.780200 31.930700 m 18.780200 35.430700 l 25.715200 35.430700 l 25.715200 31.930700 l cp s
1.000000 1.000000 1.000000 srgb
n 17.780200 32.630700 m 17.780200 33.330700 l 19.780200 33.330700 l 19.780200 32.630700 l f
0.000000 0.000000 0.000000 srgb
n 17.780200 32.630700 m 17.780200 33.330700 l 19.780200 33.330700 l 19.780200 32.630700 l cp s
1.000000 1.000000 1.000000 srgb
n 17.780200 34.030700 m 17.780200 34.730700 l 19.780200 34.730700 l 19.780200 34.030700 l f
0.000000 0.000000 0.000000 srgb
n 17.780200 34.030700 m 17.780200 34.730700 l 19.780200 34.730700 l 19.780200 34.030700 l cp s
/Helvetica-latin1 ff 0.740833 scf sf
(<<feature>>) 20.180200 33.319450 m
 gs 1 -1 sc sh gr
(    Main) 20.180200 34.377783 m
 gs 1 -1 sc sh gr
0.100000 slw
[] 0 sd
1.000000 1.000000 1.000000 srgb
n 30.135200 31.815700 m 30.135200 35.315700 l 37.070200 35.315700 l 37.070200 31.815700 l f
0.000000 0.000000 0.000000 srgb
n 30.135200 31.815700 m 30.135200 35.315700 l 37.070200 35.315700 l 37.070200 31.815700 l cp s
1.000000 1.000000 1.000000 srgb
n 29.135200 32.515700 m 29.135200 33.215700 l 31.135200 33.215700 l 31.135200 32.515700 l f
0.000000 0.000000 0.000000 srgb
n 29.135200 32.515700 m 29.135200 33.215700 l 31.135200 33.215700 l 31.135200 32.515700 l cp s
1.000000 1.000000 1.000000 srgb
n 29.135200 33.915700 m 29.135200 34.615700 l 31.135200 34.615700 l 31.135200 33.915700 l f
0.000000 0.000000 0.000000 srgb
n 29.135200 33.915700 m 29.135200 34.615700 l 31.135200 34.615700 l 31.135200 33.915700 l cp s
/Helvetica-latin1 ff 0.740833 scf sf
(<<feature>>) 31.535200 33.204450 m
 gs 1 -1 sc sh gr
(      Pre) 31.535200 34.262783 m
 gs 1 -1 sc sh gr
0.100000 slw
[] 0 sd
1.000000 1.000000 1.000000 srgb
n 18.730200 26.180700 m 18.730200 29.680700 l 25.845200 29.680700 l 25.845200 26.180700 l f
0.000000 0.000000 0.000000 srgb
n 18.730200 26.180700 m 18.730200 29.680700 l 25.845200 29.680700 l 25.845200 26.180700 l cp s
1.000000 1.000000 1.000000 srgb
n 17.730200 26.880700 m 17.730200 27.580700 l 19.730200 27.580700 l 19.730200 26.880700 l f
0.000000 0.000000 0.000000 srgb
n 17.730200 26.880700 m 17.730200 27.580700 l 19.730200 27.580700 l 19.730200 26.880700 l cp s
1.000000 1.000000 1.000000 srgb
n 17.730200 28.280700 m 17.730200 28.980700 l 19.730200 28.980700 l 19.730200 28.280700 l f
0.000000 0.000000 0.000000 srgb
n 17.730200 28.280700 m 17.730200 28.980700 l 19.730200 28.980700 l 19.730200 28.280700 l cp s
/Helvetica-latin1 ff 0.740833 scf sf
(<<product>>) 20.130200 27.569450 m
 gs 1 -1 sc sh gr
(  MainSignal) 20.130200 28.627783 m
 gs 1 -1 sc sh gr
/Helvetica-latin1 ff 0.740833 scf sf
0.100000 slw
[] 0 sd
1.000000 1.000000 1.000000 srgb
n 30.085200 26.015700 m 30.085200 29.515700 l 37.200200 29.515700 l 37.200200 26.015700 l f
0.000000 0.000000 0.000000 srgb
n 30.085200 26.015700 m 30.085200 29.515700 l 37.200200 29.515700 l 37.200200 26.015700 l cp s
1.000000 1.000000 1.000000 srgb
n 29.085200 26.715700 m 29.085200 27.415700 l 31.085200 27.415700 l 31.085200 26.715700 l f
0.000000 0.000000 0.000000 srgb
n 29.085200 26.715700 m 29.085200 27.415700 l 31.085200 27.415700 l 31.085200 26.715700 l cp s
1.000000 1.000000 1.000000 srgb
n 29.085200 28.115700 m 29.085200 28.815700 l 31.085200 28.815700 l 31.085200 28.115700 l f
0.000000 0.000000 0.000000 srgb
n 29.085200 28.115700 m 29.085200 28.815700 l 31.085200 28.815700 l 31.085200 28.115700 l cp s
/Helvetica-latin1 ff 0.740833 scf sf
(<<product>>) 31.485200 27.404450 m
 gs 1 -1 sc sh gr
(    PreSignal) 31.485200 28.462783 m
 gs 1 -1 sc sh gr
/Helvetica-latin1 ff 0.740833 scf sf
0.100000 slw
[1.000000] 0 sd
[0.400000] 0 sd
0 slj
0 slc
n 22.247700 31.930700 m 22.247700 31.005700 l 22.287700 31.005700 l 22.287700 30.015961 l s
0.100000 slw
[] 0 sd
0 slj
0 slc
n 22.537700 30.648331 m 22.287700 29.848331 l 22.037700 30.648331 l s
/Courier-latin1 ff 0.560000 scf sf
0.100000 slw
[0.400000] 0 sd
[0.400000] 0 sd
0 slj
0 slc
n 32.602700 31.765395 m 32.602700 30.865682 l 32.642700 30.865682 l 32.642700 29.901230 l s
0.100000 slw
[] 0 sd
0 slj
0 slc
n 32.892700 30.533599 m 32.642700 29.733599 l 32.392700 30.533599 l s
0.000000 slw
[] 0 sd
[] 0 sd
0 slj
n 14.914400 22.530700 m 14.914400 36.680700 l 39.108733 36.680700 l 39.108733 22.530700 l cp s
0.000000 slw
[] 0 sd
[] 0 sd
0 slj
1.000000 1.000000 1.000000 srgb
n 13.146500 26.778500 m 13.146500 28.197241 l 16.680133 28.197241 l 16.680133 26.778500 l f
0.000000 0.000000 0.000000 srgb
n 13.146500 26.778500 m 13.146500 28.197241 l 16.680133 28.197241 l 16.680133 26.778500 l cp s
0.000000 slw
[] 0 sd
[] 0 sd
0 slj
1.000000 1.000000 1.000000 srgb
n 12.984400 29.802300 m 12.984400 31.202300 l 16.370953 31.202300 l 16.370953 29.802300 l f
0.000000 0.000000 0.000000 srgb
n 12.984400 29.802300 m 12.984400 31.202300 l 16.370953 31.202300 l 16.370953 29.802300 l cp s
/Helvetica-latin1 ff 0.740833 scf sf
/Helvetica-Bold-latin1 ff 0.740833 scf sf
(<<productline>>) dup sw 2 div 27.430200 ex sub 23.696950 m
 gs 1 -1 sc sh gr
(SignalLine) dup sw 2 div 27.430200 ex sub 24.755283 m
 gs 1 -1 sc sh gr
/Helvetica-latin1 ff 0.740833 scf sf
0.100000 slw
[] 0 sd
1.000000 1.000000 1.000000 srgb
n 51.449100 25.226100 m 51.449100 29.784433 l 58.564100 29.784433 l 58.564100 25.226100 l f
0.000000 0.000000 0.000000 srgb
n 51.449100 25.226100 m 51.449100 29.784433 l 58.564100 29.784433 l 58.564100 25.226100 l cp s
1.000000 1.000000 1.000000 srgb
n 50.449100 26.455267 m 50.449100 27.155267 l 52.449100 27.155267 l 52.449100 26.455267 l f
0.000000 0.000000 0.000000 srgb
n 50.449100 26.455267 m 50.449100 27.155267 l 52.449100 27.155267 l 52.449100 26.455267 l cp s
1.000000 1.000000 1.000000 srgb
n 50.449100 27.855267 m 50.449100 28.555267 l 52.449100 28.555267 l 52.449100 27.855267 l f
0.000000 0.000000 0.000000 srgb
n 50.449100 27.855267 m 50.449100 28.555267 l 52.449100 28.555267 l 52.449100 27.855267 l cp s
/Helvetica-latin1 ff 0.740833 scf sf
(<<product>>) 52.849100 26.614850 m
 gs 1 -1 sc sh gr
(   MSwitch) 52.849100 27.673183 m
 gs 1 -1 sc sh gr
/Helvetica-latin1 ff 0.740833 scf sf
0.100000 slw
[1.000000] 0 sd
[0.400000] 0 sd
0 slj
0 slc
n 54.016600 32.325700 m 54.016600 31.280266 l 54.006600 31.280266 l 54.006600 30.170092 l s
0.100000 slw
[] 0 sd
0 slj
0 slc
n 54.256600 30.802462 m 54.006600 30.002462 l 53.756600 30.802462 l s
/Courier-latin1 ff 0.560000 scf sf
0.000000 slw
[] 0 sd
[] 0 sd
0 slj
n 46.034800 22.557000 m 46.034800 36.823667 l 60.298482 36.823667 l 60.298482 22.557000 l cp s
0.000000 slw
[] 0 sd
[] 0 sd
0 slj
1.000000 1.000000 1.000000 srgb
n 44.101700 26.495700 m 44.101700 28.022400 l 47.588783 28.022400 l 47.588783 26.495700 l f
0.000000 0.000000 0.000000 srgb
n 44.101700 26.495700 m 44.101700 28.022400 l 47.588783 28.022400 l 47.588783 26.495700 l cp s
0.000000 slw
[] 0 sd
[] 0 sd
0 slj
1.000000 1.000000 1.000000 srgb
n 43.966400 29.732500 m 43.966400 31.132500 l 47.400033 31.132500 l 47.400033 29.732500 l f
0.000000 0.000000 0.000000 srgb
n 43.966400 29.732500 m 43.966400 31.132500 l 47.400033 31.132500 l 47.400033 29.732500 l cp s
/Helvetica-latin1 ff 0.740833 scf sf
/Helvetica-Bold-latin1 ff 0.740833 scf sf
(<<productline>>) dup sw 2 div 53.226900 ex sub 23.582050 m
 gs 1 -1 sc sh gr
(SwitchLine) dup sw 2 div 53.226900 ex sub 24.640383 m
 gs 1 -1 sc sh gr
/Helvetica-latin1 ff 0.740833 scf sf
/Helvetica-latin1 ff 0.740833 scf sf
/Helvetica-latin1 ff 0.740833 scf sf
/Helvetica-latin1 ff 0.740833 scf sf
/Helvetica-latin1 ff 0.740833 scf sf
/Helvetica-latin1 ff 0.740833 scf sf
/Helvetica-latin1 ff 0.740833 scf sf
/Helvetica-latin1 ff 0.740833 scf sf
0.100000 slw
[] 0 sd
1.000000 1.000000 1.000000 srgb
n 45.572500 44.182500 m 45.572500 47.682500 l 52.507500 47.682500 l 52.507500 44.182500 l f
0.000000 0.000000 0.000000 srgb
n 45.572500 44.182500 m 45.572500 47.682500 l 52.507500 47.682500 l 52.507500 44.182500 l cp s
1.000000 1.000000 1.000000 srgb
n 44.572500 44.882500 m 44.572500 45.582500 l 46.572500 45.582500 l 46.572500 44.882500 l f
0.000000 0.000000 0.000000 srgb
n 44.572500 44.882500 m 44.572500 45.582500 l 46.572500 45.582500 l 46.572500 44.882500 l cp s
1.000000 1.000000 1.000000 srgb
n 44.572500 46.282500 m 44.572500 46.982500 l 46.572500 46.982500 l 46.572500 46.282500 l f
0.000000 0.000000 0.000000 srgb
n 44.572500 46.282500 m 44.572500 46.982500 l 46.572500 46.982500 l 46.572500 46.282500 l cp s
/Helvetica-latin1 ff 0.740833 scf sf
(<<feature>>) 46.972500 45.571250 m
 gs 1 -1 sc sh gr
(Notification) 46.972500 46.629583 m
 gs 1 -1 sc sh gr
0.100000 slw
[] 0 sd
1.000000 1.000000 1.000000 srgb
n 34.422500 42.982500 m 34.422500 47.540833 l 41.537500 47.540833 l 41.537500 42.982500 l f
0.000000 0.000000 0.000000 srgb
n 34.422500 42.982500 m 34.422500 47.540833 l 41.537500 47.540833 l 41.537500 42.982500 l cp s
1.000000 1.000000 1.000000 srgb
n 33.422500 44.211667 m 33.422500 44.911667 l 35.422500 44.911667 l 35.422500 44.211667 l f
0.000000 0.000000 0.000000 srgb
n 33.422500 44.211667 m 33.422500 44.911667 l 35.422500 44.911667 l 35.422500 44.211667 l cp s
1.000000 1.000000 1.000000 srgb
n 33.422500 45.611667 m 33.422500 46.311667 l 35.422500 46.311667 l 35.422500 45.611667 l f
0.000000 0.000000 0.000000 srgb
n 33.422500 45.611667 m 33.422500 46.311667 l 35.422500 46.311667 l 35.422500 45.611667 l cp s
/Helvetica-latin1 ff 0.740833 scf sf
(<<product>>) 35.822500 44.371250 m
 gs 1 -1 sc sh gr
(StationA) 35.822500 45.429583 m
 gs 1 -1 sc sh gr
/Helvetica-latin1 ff 0.740833 scf sf
0.100000 slw
[1.000000] 0 sd
[0.400000] 0 sd
0 slj
0 slc
n 44.572500 45.232500 m 43.255000 45.232500 l 43.255000 45.261667 l 41.872761 45.261667 l s
0.100000 slw
[] 0 sd
0 slj
0 slc
n 42.505131 45.011667 m 41.705131 45.261667 l 42.505131 45.511667 l s
/Courier-latin1 ff 0.560000 scf sf
0.000000 slw
[] 0 sd
[] 0 sd
0 slj
n 30.596600 38.534000 m 30.596600 49.134010 l 52.630739 49.134010 l 52.630739 38.534000 l cp s
0.000000 slw
[] 0 sd
[] 0 sd
0 slj
1.000000 1.000000 1.000000 srgb
n 29.030300 45.128900 m 29.030300 46.528900 l 32.435300 46.528900 l 32.435300 45.128900 l f
0.000000 0.000000 0.000000 srgb
n 29.030300 45.128900 m 29.030300 46.528900 l 32.435300 46.528900 l 32.435300 45.128900 l cp s
/Helvetica-latin1 ff 0.740833 scf sf
/Helvetica-Bold-latin1 ff 0.740833 scf sf
(<<productline>>) dup sw 2 div 43.265600 ex sub 39.550250 m
 gs 1 -1 sc sh gr
(StationLine) dup sw 2 div 43.265600 ex sub 40.608583 m
 gs 1 -1 sc sh gr
/Helvetica-latin1 ff 0.740833 scf sf
/Helvetica-latin1 ff 0.740833 scf sf
/Helvetica-latin1 ff 0.740833 scf sf
/Helvetica-latin1 ff 0.740833 scf sf
/Helvetica-latin1 ff 0.740833 scf sf
/Helvetica-latin1 ff 0.740833 scf sf
/Helvetica-latin1 ff 0.740833 scf sf
0.100000 slw
[1.000000] 0 sd
[0.400000] 0 sd
0 slj
0 slc
n 33.422500 44.561667 m 27.631700 44.561667 l 27.631700 33.680700 l 26.050461 33.680700 l s
0.100000 slw
[] 0 sd
0 slj
0 slc
n 26.682831 33.430700 m 25.882831 33.680700 l 26.682831 33.930700 l s
/Courier-latin1 ff 0.560000 scf sf
0.100000 slw
[0.400000] 0 sd
[0.400000] 0 sd
0 slj
0 slc
n 37.980000 42.982500 m 37.980000 43.234010 l 38.380739 43.234010 l 38.380739 33.565700 l 37.405461 33.565700 l s
0.100000 slw
[] 0 sd
0 slj
0 slc
n 38.037831 33.315700 m 37.237831 33.565700 l 38.037831 33.815700 l s
0.100000 slw
[0.400000] 0 sd
[0.400000] 0 sd
0 slj
0 slc
n 41.680739 43.584010 m 48.415200 43.584010 l 48.415200 33.955300 l 50.213839 33.955300 l s
0.100000 slw
[] 0 sd
0 slj
0 slc
n 49.581469 34.205300 m 50.381469 33.955300 l 49.581469 33.705300 l s
0.100000 slw
[] 0 sd
1.000000 1.000000 1.000000 srgb
n 51.621700 32.053600 m 51.621700 35.553600 l 58.556700 35.553600 l 58.556700 32.053600 l f
0.000000 0.000000 0.000000 srgb
n 51.621700 32.053600 m 51.621700 35.553600 l 58.556700 35.553600 l 58.556700 32.053600 l cp s
1.000000 1.000000 1.000000 srgb
n 50.621700 32.753600 m 50.621700 33.453600 l 52.621700 33.453600 l 52.621700 32.753600 l f
0.000000 0.000000 0.000000 srgb
n 50.621700 32.753600 m 50.621700 33.453600 l 52.621700 33.453600 l 52.621700 32.753600 l cp s
1.000000 1.000000 1.000000 srgb
n 50.621700 34.153600 m 50.621700 34.853600 l 52.621700 34.853600 l 52.621700 34.153600 l f
0.000000 0.000000 0.000000 srgb
n 50.621700 34.153600 m 50.621700 34.853600 l 52.621700 34.853600 l 52.621700 34.153600 l cp s
/Helvetica-latin1 ff 0.740833 scf sf
(<<feature>>) 53.021700 33.442350 m
 gs 1 -1 sc sh gr
(   Manual) 53.021700 34.500683 m
 gs 1 -1 sc sh gr
/Helvetica-latin1 ff 0.560000 scf sf
/Helvetica-latin1 ff 0.560000 scf sf
(  ) 20.431700 34.170300 m
 gs 1 -1 sc sh gr
/Helvetica-latin1 ff 0.619337 scf sf
(<<uses>>) 27.500000 38.072385 m
 gs 1 -1 sc sh gr
/Helvetica-latin1 ff 0.619337 scf sf
(<<uses>>) 34.780739 39.851295 m
 gs 1 -1 sc sh gr
/Helvetica-latin1 ff 0.619337 scf sf
(<<uses>>) 48.760000 40.649885 m
 gs 1 -1 sc sh gr
0.000000 slw
[] 0 sd
[] 0 sd
0 slj
1.000000 1.000000 1.000000 srgb
n 29.035739 42.169010 m 29.035739 43.569010 l 32.440739 43.569010 l 32.440739 42.169010 l f
0.000000 0.000000 0.000000 srgb
n 29.035739 42.169010 m 29.035739 43.569010 l 32.440739 43.569010 l 32.440739 42.169010 l cp s
showpage
