%!PS-Adobe-2.0 EPSF-2.0
%%Title: E:\Riset\splc-chall-mspl\UMLDiagram\Signal.dia
%%Creator: Dia v0.97.2
%%CreationDate: Fri Jul 06 22:56:18 2018
%%For: mayaretno
%%Orientation: Portrait
%%Magnification: 1.0000
%%BoundingBox: 0 0 871 840
%%BeginSetup
%%EndSetup
%%EndComments
%%BeginProlog
[ /.notdef /.notdef /.notdef /.notdef /.notdef /.notdef /.notdef /.notdef /.notdef /.notdef
/.notdef /.notdef /.notdef /.notdef /.notdef /.notdef /.notdef /.notdef /.notdef /.notdef
/.notdef /.notdef /.notdef /.notdef /.notdef /.notdef /.notdef /.notdef /.notdef /.notdef
/.notdef /.notdef /space /exclam /quotedbl /numbersign /dollar /percent /ampersand /quoteright
/parenleft /parenright /asterisk /plus /comma /hyphen /period /slash /zero /one
/two /three /four /five /six /seven /eight /nine /colon /semicolon
/less /equal /greater /question /at /A /B /C /D /E
/F /G /H /I /J /K /L /M /N /O
/P /Q /R /S /T /U /V /W /X /Y
/Z /bracketleft /backslash /bracketright /asciicircum /underscore /quoteleft /a /b /c
/d /e /f /g /h /i /j /k /l /m
/n /o /p /q /r /s /t /u /v /w
/x /y /z /braceleft /bar /braceright /asciitilde /.notdef /.notdef /.notdef
/.notdef /.notdef /.notdef /.notdef /.notdef /.notdef /.notdef /.notdef /.notdef /.notdef
/.notdef /.notdef /.notdef /.notdef /.notdef /.notdef /.notdef /.notdef /.notdef /.notdef
/.notdef /.notdef /.notdef /.notdef /.notdef /.notdef /.notdef /.notdef /.notdef /.notdef
/space /exclamdown /cent /sterling /currency /yen /brokenbar /section /dieresis /copyright
/ordfeminine /guillemotleft /logicalnot /hyphen /registered /macron /degree /plusminus /twosuperior /threesuperior
/acute /mu /paragraph /periodcentered /cedilla /onesuperior /ordmasculine /guillemotright /onequarter /onehalf
/threequarters /questiondown /Agrave /Aacute /Acircumflex /Atilde /Adieresis /Aring /AE /Ccedilla
/Egrave /Eacute /Ecircumflex /Edieresis /Igrave /Iacute /Icircumflex /Idieresis /Eth /Ntilde
/Ograve /Oacute /Ocircumflex /Otilde /Odieresis /multiply /Oslash /Ugrave /Uacute /Ucircumflex
/Udieresis /Yacute /Thorn /germandbls /agrave /aacute /acircumflex /atilde /adieresis /aring
/ae /ccedilla /egrave /eacute /ecircumflex /edieresis /igrave /iacute /icircumflex /idieresis
/eth /ntilde /ograve /oacute /ocircumflex /otilde /odieresis /divide /oslash /ugrave
/uacute /ucircumflex /udieresis /yacute /thorn /ydieresis] /isolatin1encoding exch def
/cp {closepath} bind def
/c {curveto} bind def
/f {fill} bind def
/a {arc} bind def
/ef {eofill} bind def
/ex {exch} bind def
/gr {grestore} bind def
/gs {gsave} bind def
/sa {save} bind def
/rs {restore} bind def
/l {lineto} bind def
/m {moveto} bind def
/rm {rmoveto} bind def
/n {newpath} bind def
/s {stroke} bind def
/sh {show} bind def
/slc {setlinecap} bind def
/slj {setlinejoin} bind def
/slw {setlinewidth} bind def
/srgb {setrgbcolor} bind def
/rot {rotate} bind def
/sc {scale} bind def
/sd {setdash} bind def
/ff {findfont} bind def
/sf {setfont} bind def
/scf {scalefont} bind def
/sw {stringwidth pop} bind def
/tr {translate} bind def

/ellipsedict 8 dict def
ellipsedict /mtrx matrix put
/ellipse
{ ellipsedict begin
   /endangle exch def
   /startangle exch def
   /yrad exch def
   /xrad exch def
   /y exch def
   /x exch def   /savematrix mtrx currentmatrix def
   x y tr xrad yrad sc
   0 0 1 startangle endangle arc
   savematrix setmatrix
   end
} def

/mergeprocs {
dup length
3 -1 roll
dup
length
dup
5 1 roll
3 -1 roll
add
array cvx
dup
3 -1 roll
0 exch
putinterval
dup
4 2 roll
putinterval
} bind def
/Times-Roman-latin1
    /Times-Roman findfont
    dup length dict begin
	{1 index /FID ne {def} {pop pop} ifelse} forall
	/Encoding isolatin1encoding def
    currentdict end
definefont pop
/Times-Italic-latin1
    /Times-Italic findfont
    dup length dict begin
	{1 index /FID ne {def} {pop pop} ifelse} forall
	/Encoding isolatin1encoding def
    currentdict end
definefont pop
/Times-Bold-latin1
    /Times-Bold findfont
    dup length dict begin
	{1 index /FID ne {def} {pop pop} ifelse} forall
	/Encoding isolatin1encoding def
    currentdict end
definefont pop
/Times-BoldItalic-latin1
    /Times-BoldItalic findfont
    dup length dict begin
	{1 index /FID ne {def} {pop pop} ifelse} forall
	/Encoding isolatin1encoding def
    currentdict end
definefont pop
/AvantGarde-Gothic-latin1
    /AvantGarde-Gothic findfont
    dup length dict begin
	{1 index /FID ne {def} {pop pop} ifelse} forall
	/Encoding isolatin1encoding def
    currentdict end
definefont pop
/AvantGarde-BookOblique-latin1
    /AvantGarde-BookOblique findfont
    dup length dict begin
	{1 index /FID ne {def} {pop pop} ifelse} forall
	/Encoding isolatin1encoding def
    currentdict end
definefont pop
/AvantGarde-Demi-latin1
    /AvantGarde-Demi findfont
    dup length dict begin
	{1 index /FID ne {def} {pop pop} ifelse} forall
	/Encoding isolatin1encoding def
    currentdict end
definefont pop
/AvantGarde-DemiOblique-latin1
    /AvantGarde-DemiOblique findfont
    dup length dict begin
	{1 index /FID ne {def} {pop pop} ifelse} forall
	/Encoding isolatin1encoding def
    currentdict end
definefont pop
/Bookman-Light-latin1
    /Bookman-Light findfont
    dup length dict begin
	{1 index /FID ne {def} {pop pop} ifelse} forall
	/Encoding isolatin1encoding def
    currentdict end
definefont pop
/Bookman-LightItalic-latin1
    /Bookman-LightItalic findfont
    dup length dict begin
	{1 index /FID ne {def} {pop pop} ifelse} forall
	/Encoding isolatin1encoding def
    currentdict end
definefont pop
/Bookman-Demi-latin1
    /Bookman-Demi findfont
    dup length dict begin
	{1 index /FID ne {def} {pop pop} ifelse} forall
	/Encoding isolatin1encoding def
    currentdict end
definefont pop
/Bookman-DemiItalic-latin1
    /Bookman-DemiItalic findfont
    dup length dict begin
	{1 index /FID ne {def} {pop pop} ifelse} forall
	/Encoding isolatin1encoding def
    currentdict end
definefont pop
/Courier-latin1
    /Courier findfont
    dup length dict begin
	{1 index /FID ne {def} {pop pop} ifelse} forall
	/Encoding isolatin1encoding def
    currentdict end
definefont pop
/Courier-Oblique-latin1
    /Courier-Oblique findfont
    dup length dict begin
	{1 index /FID ne {def} {pop pop} ifelse} forall
	/Encoding isolatin1encoding def
    currentdict end
definefont pop
/Courier-Bold-latin1
    /Courier-Bold findfont
    dup length dict begin
	{1 index /FID ne {def} {pop pop} ifelse} forall
	/Encoding isolatin1encoding def
    currentdict end
definefont pop
/Courier-BoldOblique-latin1
    /Courier-BoldOblique findfont
    dup length dict begin
	{1 index /FID ne {def} {pop pop} ifelse} forall
	/Encoding isolatin1encoding def
    currentdict end
definefont pop
/Helvetica-latin1
    /Helvetica findfont
    dup length dict begin
	{1 index /FID ne {def} {pop pop} ifelse} forall
	/Encoding isolatin1encoding def
    currentdict end
definefont pop
/Helvetica-Oblique-latin1
    /Helvetica-Oblique findfont
    dup length dict begin
	{1 index /FID ne {def} {pop pop} ifelse} forall
	/Encoding isolatin1encoding def
    currentdict end
definefont pop
/Helvetica-Bold-latin1
    /Helvetica-Bold findfont
    dup length dict begin
	{1 index /FID ne {def} {pop pop} ifelse} forall
	/Encoding isolatin1encoding def
    currentdict end
definefont pop
/Helvetica-BoldOblique-latin1
    /Helvetica-BoldOblique findfont
    dup length dict begin
	{1 index /FID ne {def} {pop pop} ifelse} forall
	/Encoding isolatin1encoding def
    currentdict end
definefont pop
/Helvetica-Narrow-latin1
    /Helvetica-Narrow findfont
    dup length dict begin
	{1 index /FID ne {def} {pop pop} ifelse} forall
	/Encoding isolatin1encoding def
    currentdict end
definefont pop
/Helvetica-Narrow-Oblique-latin1
    /Helvetica-Narrow-Oblique findfont
    dup length dict begin
	{1 index /FID ne {def} {pop pop} ifelse} forall
	/Encoding isolatin1encoding def
    currentdict end
definefont pop
/Helvetica-Narrow-Bold-latin1
    /Helvetica-Narrow-Bold findfont
    dup length dict begin
	{1 index /FID ne {def} {pop pop} ifelse} forall
	/Encoding isolatin1encoding def
    currentdict end
definefont pop
/Helvetica-Narrow-BoldOblique-latin1
    /Helvetica-Narrow-BoldOblique findfont
    dup length dict begin
	{1 index /FID ne {def} {pop pop} ifelse} forall
	/Encoding isolatin1encoding def
    currentdict end
definefont pop
/NewCenturySchlbk-Roman-latin1
    /NewCenturySchlbk-Roman findfont
    dup length dict begin
	{1 index /FID ne {def} {pop pop} ifelse} forall
	/Encoding isolatin1encoding def
    currentdict end
definefont pop
/NewCenturySchlbk-Italic-latin1
    /NewCenturySchlbk-Italic findfont
    dup length dict begin
	{1 index /FID ne {def} {pop pop} ifelse} forall
	/Encoding isolatin1encoding def
    currentdict end
definefont pop
/NewCenturySchlbk-Bold-latin1
    /NewCenturySchlbk-Bold findfont
    dup length dict begin
	{1 index /FID ne {def} {pop pop} ifelse} forall
	/Encoding isolatin1encoding def
    currentdict end
definefont pop
/NewCenturySchlbk-BoldItalic-latin1
    /NewCenturySchlbk-BoldItalic findfont
    dup length dict begin
	{1 index /FID ne {def} {pop pop} ifelse} forall
	/Encoding isolatin1encoding def
    currentdict end
definefont pop
/Palatino-Roman-latin1
    /Palatino-Roman findfont
    dup length dict begin
	{1 index /FID ne {def} {pop pop} ifelse} forall
	/Encoding isolatin1encoding def
    currentdict end
definefont pop
/Palatino-Italic-latin1
    /Palatino-Italic findfont
    dup length dict begin
	{1 index /FID ne {def} {pop pop} ifelse} forall
	/Encoding isolatin1encoding def
    currentdict end
definefont pop
/Palatino-Bold-latin1
    /Palatino-Bold findfont
    dup length dict begin
	{1 index /FID ne {def} {pop pop} ifelse} forall
	/Encoding isolatin1encoding def
    currentdict end
definefont pop
/Palatino-BoldItalic-latin1
    /Palatino-BoldItalic findfont
    dup length dict begin
	{1 index /FID ne {def} {pop pop} ifelse} forall
	/Encoding isolatin1encoding def
    currentdict end
definefont pop
/Symbol-latin1
    /Symbol findfont
definefont pop
/ZapfChancery-MediumItalic-latin1
    /ZapfChancery-MediumItalic findfont
    dup length dict begin
	{1 index /FID ne {def} {pop pop} ifelse} forall
	/Encoding isolatin1encoding def
    currentdict end
definefont pop
/ZapfDingbats-latin1
    /ZapfDingbats findfont
    dup length dict begin
	{1 index /FID ne {def} {pop pop} ifelse} forall
	/Encoding isolatin1encoding def
    currentdict end
definefont pop
28.346000 -28.346000 scale
-5.884800 46.032887 translate
%%EndProlog


0.000000 slw
[] 0 sd
1.000000 1.000000 1.000000 srgb
n 6.868990 -65.545700 m 6.868990 -60.395700 l 19.492723 -60.395700 l 19.492723 -65.545700 l f
0.000000 0.000000 0.000000 srgb
n 6.868990 -65.545700 m 6.868990 -60.395700 l 19.492723 -60.395700 l 19.492723 -65.545700 l cp s
1.000000 1.000000 1.000000 srgb
n 6.868990 -67.345700 m 6.868990 -65.545700 l 10.533990 -65.545700 l 10.533990 -67.345700 l f
0.000000 0.000000 0.000000 srgb
n 6.868990 -67.345700 m 6.868990 -65.545700 l 10.533990 -65.545700 l 10.533990 -67.345700 l cp s
/Courier-latin1 ff 0.560000 scf sf
(<<delta>>) 6.968990 -66.845700 m
 gs 1 -1 sc sh gr
(DMainSig) 6.968990 -66.045700 m
 gs 1 -1 sc sh gr
0.000000 slw
[] 0 sd
1.000000 1.000000 1.000000 srgb
n 22.843500 -65.377500 m 22.843500 -59.269067 l 35.369767 -59.269067 l 35.369767 -65.377500 l f
0.000000 0.000000 0.000000 srgb
n 22.843500 -65.377500 m 22.843500 -59.269067 l 35.369767 -59.269067 l 35.369767 -65.377500 l cp s
1.000000 1.000000 1.000000 srgb
n 22.843500 -67.177500 m 22.843500 -65.377500 l 26.508500 -65.377500 l 26.508500 -67.177500 l f
0.000000 0.000000 0.000000 srgb
n 22.843500 -67.177500 m 22.843500 -65.377500 l 26.508500 -65.377500 l 26.508500 -67.177500 l cp s
/Courier-latin1 ff 0.560000 scf sf
(<<delta>>) 22.943500 -66.677500 m
 gs 1 -1 sc sh gr
(DPreSig) 22.943500 -65.877500 m
 gs 1 -1 sc sh gr
0.000000 slw
[] 0 sd
1.000000 1.000000 1.000000 srgb
n 7.373990 -64.860700 m 7.373990 -62.560700 l 18.686490 -62.560700 l 18.686490 -64.860700 l f
0.000000 0.000000 0.000000 srgb
n 7.373990 -64.860700 m 7.373990 -62.560700 l 18.686490 -62.560700 l 18.686490 -64.860700 l cp s
/Courier-latin1 ff 0.630000 scf sf
(<<modifiedClass>>) dup sw 2 div 13.030240 ex sub -64.210700 m
 gs 1 -1 sc sh gr
/Helvetica-Bold-latin1 ff 0.700000 scf sf
(Signal) dup sw 2 div 13.030240 ex sub -63.110700 m
 gs 1 -1 sc sh gr
1.000000 1.000000 1.000000 srgb
n 7.373990 -62.560700 m 7.373990 -62.160700 l 18.686490 -62.160700 l 18.686490 -62.560700 l f
0.000000 0.000000 0.000000 srgb
n 7.373990 -62.560700 m 7.373990 -62.160700 l 18.686490 -62.160700 l 18.686490 -62.560700 l cp s
1.000000 1.000000 1.000000 srgb
n 7.373990 -62.160700 m 7.373990 -61.060700 l 18.686490 -61.060700 l 18.686490 -62.160700 l f
0.000000 0.000000 0.000000 srgb
n 7.373990 -62.160700 m 7.373990 -61.060700 l 18.686490 -61.060700 l 18.686490 -62.160700 l cp s
/Courier-latin1 ff 0.630000 scf sf
(+<<modifies>> run\(\): Unit) 7.473990 -61.610700 m
 gs 1 -1 sc sh gr
0.000000 slw
[] 0 sd
1.000000 1.000000 1.000000 srgb
n 23.224800 -64.627500 m 23.224800 -62.327500 l 34.969800 -62.327500 l 34.969800 -64.627500 l f
0.000000 0.000000 0.000000 srgb
n 23.224800 -64.627500 m 23.224800 -62.327500 l 34.969800 -62.327500 l 34.969800 -64.627500 l cp s
/Courier-latin1 ff 0.630000 scf sf
(<<modifiedClass>>) dup sw 2 div 29.097300 ex sub -63.977500 m
 gs 1 -1 sc sh gr
/Helvetica-Bold-latin1 ff 0.700000 scf sf
(Signal) dup sw 2 div 29.097300 ex sub -62.877500 m
 gs 1 -1 sc sh gr
1.000000 1.000000 1.000000 srgb
n 23.224800 -62.327500 m 23.224800 -61.927500 l 34.969800 -61.927500 l 34.969800 -62.327500 l f
0.000000 0.000000 0.000000 srgb
n 23.224800 -62.327500 m 23.224800 -61.927500 l 34.969800 -61.927500 l 34.969800 -62.327500 l cp s
1.000000 1.000000 1.000000 srgb
n 23.224800 -61.927500 m 23.224800 -59.927500 l 34.969800 -59.927500 l 34.969800 -61.927500 l f
0.000000 0.000000 0.000000 srgb
n 23.224800 -61.927500 m 23.224800 -59.927500 l 34.969800 -59.927500 l 34.969800 -61.927500 l cp s
/Courier-latin1 ff 0.630000 scf sf
(+<<adds>> Signal\(main:Sig\)) 23.324800 -61.377500 m
 gs 1 -1 sc sh gr
(+<<modifies>> run\(\): Unit) 23.324800 -60.477500 m
 gs 1 -1 sc sh gr
0.100000 slw
[] 0 sd
1.000000 1.000000 1.000000 srgb
n 14.259900 -50.102500 m 14.259900 -46.602500 l 21.012400 -46.602500 l 21.012400 -50.102500 l f
0.000000 0.000000 0.000000 srgb
n 14.259900 -50.102500 m 14.259900 -46.602500 l 21.012400 -46.602500 l 21.012400 -50.102500 l cp s
1.000000 1.000000 1.000000 srgb
n 13.259900 -49.402500 m 13.259900 -48.702500 l 15.259900 -48.702500 l 15.259900 -49.402500 l f
0.000000 0.000000 0.000000 srgb
n 13.259900 -49.402500 m 13.259900 -48.702500 l 15.259900 -48.702500 l 15.259900 -49.402500 l cp s
1.000000 1.000000 1.000000 srgb
n 13.259900 -48.002500 m 13.259900 -47.302500 l 15.259900 -47.302500 l 15.259900 -48.002500 l f
0.000000 0.000000 0.000000 srgb
n 13.259900 -48.002500 m 13.259900 -47.302500 l 15.259900 -47.302500 l 15.259900 -48.002500 l cp s
/Helvetica-latin1 ff 0.716139 scf sf
(<<feature>>) 15.659900 -48.738458 m
 gs 1 -1 sc sh gr
(Main) 15.659900 -47.715403 m
 gs 1 -1 sc sh gr
0.100000 slw
[] 0 sd
1.000000 1.000000 1.000000 srgb
n 24.364900 -50.067500 m 24.364900 -46.567500 l 31.117400 -46.567500 l 31.117400 -50.067500 l f
0.000000 0.000000 0.000000 srgb
n 24.364900 -50.067500 m 24.364900 -46.567500 l 31.117400 -46.567500 l 31.117400 -50.067500 l cp s
1.000000 1.000000 1.000000 srgb
n 23.364900 -49.367500 m 23.364900 -48.667500 l 25.364900 -48.667500 l 25.364900 -49.367500 l f
0.000000 0.000000 0.000000 srgb
n 23.364900 -49.367500 m 23.364900 -48.667500 l 25.364900 -48.667500 l 25.364900 -49.367500 l cp s
1.000000 1.000000 1.000000 srgb
n 23.364900 -47.967500 m 23.364900 -47.267500 l 25.364900 -47.267500 l 25.364900 -47.967500 l f
0.000000 0.000000 0.000000 srgb
n 23.364900 -47.967500 m 23.364900 -47.267500 l 25.364900 -47.267500 l 25.364900 -47.967500 l cp s
/Helvetica-latin1 ff 0.716139 scf sf
(<<feature>>) 25.764900 -48.703458 m
 gs 1 -1 sc sh gr
(Pre) 25.764900 -47.680403 m
 gs 1 -1 sc sh gr
0.100000 slw
[] 0 sd
1.000000 1.000000 1.000000 srgb
n 14.310300 -55.360800 m 14.310300 -51.860800 l 21.240300 -51.860800 l 21.240300 -55.360800 l f
0.000000 0.000000 0.000000 srgb
n 14.310300 -55.360800 m 14.310300 -51.860800 l 21.240300 -51.860800 l 21.240300 -55.360800 l cp s
1.000000 1.000000 1.000000 srgb
n 13.310300 -54.660800 m 13.310300 -53.960800 l 15.310300 -53.960800 l 15.310300 -54.660800 l f
0.000000 0.000000 0.000000 srgb
n 13.310300 -54.660800 m 13.310300 -53.960800 l 15.310300 -53.960800 l 15.310300 -54.660800 l cp s
1.000000 1.000000 1.000000 srgb
n 13.310300 -53.260800 m 13.310300 -52.560800 l 15.310300 -52.560800 l 15.310300 -53.260800 l f
0.000000 0.000000 0.000000 srgb
n 13.310300 -53.260800 m 13.310300 -52.560800 l 15.310300 -52.560800 l 15.310300 -53.260800 l cp s
/Helvetica-latin1 ff 0.716139 scf sf
(<<product>>) 15.710300 -53.996758 m
 gs 1 -1 sc sh gr
(MainSignal) 15.710300 -52.973703 m
 gs 1 -1 sc sh gr
/Helvetica-latin1 ff 0.716139 scf sf
0.100000 slw
[] 0 sd
1.000000 1.000000 1.000000 srgb
n 24.289400 -55.817500 m 24.289400 -52.317500 l 31.219400 -52.317500 l 31.219400 -55.817500 l f
0.000000 0.000000 0.000000 srgb
n 24.289400 -55.817500 m 24.289400 -52.317500 l 31.219400 -52.317500 l 31.219400 -55.817500 l cp s
1.000000 1.000000 1.000000 srgb
n 23.289400 -55.117500 m 23.289400 -54.417500 l 25.289400 -54.417500 l 25.289400 -55.117500 l f
0.000000 0.000000 0.000000 srgb
n 23.289400 -55.117500 m 23.289400 -54.417500 l 25.289400 -54.417500 l 25.289400 -55.117500 l cp s
1.000000 1.000000 1.000000 srgb
n 23.289400 -53.717500 m 23.289400 -53.017500 l 25.289400 -53.017500 l 25.289400 -53.717500 l f
0.000000 0.000000 0.000000 srgb
n 23.289400 -53.717500 m 23.289400 -53.017500 l 25.289400 -53.017500 l 25.289400 -53.717500 l cp s
/Helvetica-latin1 ff 0.716139 scf sf
(<<product>>) 25.689400 -54.453458 m
 gs 1 -1 sc sh gr
(PreSignal) 25.689400 -53.430403 m
 gs 1 -1 sc sh gr
/Helvetica-latin1 ff 0.716139 scf sf
0.100000 slw
[1.000000] 0 sd
[0.400000] 0 sd
0 slj
0 slc
n 17.636150 -50.102500 m 17.636150 -50.781650 l 17.775300 -50.781650 l 17.775300 -51.525539 l s
0.100000 slw
[] 0 sd
0 slj
0 slc
n 18.025300 -50.893169 m 17.775300 -51.693169 l 17.525300 -50.893169 l s
/Courier-latin1 ff 0.560000 scf sf
0.100000 slw
[0.400000] 0 sd
[0.400000] 0 sd
0 slj
0 slc
n 26.741150 -50.117805 m 26.741150 -50.992518 l 26.754400 -50.992518 l 26.754400 -51.931970 l s
0.100000 slw
[] 0 sd
0 slj
0 slc
n 27.004400 -51.299601 m 26.754400 -52.099601 l 26.504400 -51.299601 l s
0.000000 slw
[] 0 sd
[] 0 sd
0 slj
n 7.551400 -58.410800 m 7.551400 -46.032887 l 35.075000 -46.032887 l 35.075000 -58.410800 l cp s
0.000000 slw
[] 0 sd
[] 0 sd
0 slj
1.000000 1.000000 1.000000 srgb
n 5.968480 -54.256700 m 5.968480 -52.706700 l 9.502113 -52.706700 l 9.502113 -54.256700 l f
0.000000 0.000000 0.000000 srgb
n 5.968480 -54.256700 m 5.968480 -52.706700 l 9.502113 -52.706700 l 9.502113 -54.256700 l cp s
0.000000 slw
[] 0 sd
[] 0 sd
0 slj
1.000000 1.000000 1.000000 srgb
n 5.884800 -50.832000 m 5.884800 -49.428170 l 9.442807 -49.428170 l 9.442807 -50.832000 l f
0.000000 0.000000 0.000000 srgb
n 5.884800 -50.832000 m 5.884800 -49.428170 l 9.442807 -49.428170 l 9.442807 -50.832000 l cp s
/Helvetica-latin1 ff 0.716139 scf sf
/Helvetica-Bold-latin1 ff 0.716139 scf sf
(<<productline>>) dup sw 2 div 21.209900 ex sub -57.130958 m
 gs 1 -1 sc sh gr
(SignalLine) dup sw 2 div 21.209900 ex sub -56.107903 m
 gs 1 -1 sc sh gr
0.100000 slw
[1.000000] 0 sd
[0.400000] 0 sd
0 slj
0 slc
n 13.180856 -60.395700 m 10.359800 -60.395700 l 10.359800 -49.052500 l 12.924639 -49.052500 l s
0.100000 slw
[] 0 sd
0 slj
0 slc
n 12.292269 -48.802500 m 13.092269 -49.052500 l 12.292269 -49.302500 l s
/Courier-latin1 ff 0.560000 scf sf
(<<when>>) 10.459800 -55.124100 m
 gs 1 -1 sc sh gr
0.100000 slw
[] 0 sd
1.000000 1.000000 1.000000 srgb
n 11.276800 -73.785000 m 11.276800 -69.299377 l 28.791566 -69.299377 l 28.791566 -73.785000 l f
0.000000 0.000000 0.000000 srgb
n 11.276800 -73.785000 m 11.276800 -69.299377 l 28.791566 -69.299377 l 28.791566 -73.785000 l cp s
1.000000 1.000000 1.000000 srgb
n 11.276800 -75.585000 m 11.276800 -73.785000 l 15.326800 -73.785000 l 15.326800 -75.585000 l f
0.000000 0.000000 0.000000 srgb
n 11.276800 -75.585000 m 11.276800 -73.785000 l 15.326800 -73.785000 l 15.326800 -75.585000 l cp s
/Courier-latin1 ff 0.560000 scf sf
(<<module>>) 11.376800 -75.085000 m
 gs 1 -1 sc sh gr
(MSignal) 11.376800 -74.285000 m
 gs 1 -1 sc sh gr
0.000000 slw
[] 0 sd
1.000000 1.000000 1.000000 srgb
n 12.707200 -73.109700 m 12.707200 -70.809700 l 18.829700 -70.809700 l 18.829700 -73.109700 l f
0.000000 0.000000 0.000000 srgb
n 12.707200 -73.109700 m 12.707200 -70.809700 l 18.829700 -70.809700 l 18.829700 -73.109700 l cp s
/Courier-latin1 ff 0.630000 scf sf
(<<interface>>) dup sw 2 div 15.768450 ex sub -72.459700 m
 gs 1 -1 sc sh gr
/Helvetica-Bold-latin1 ff 0.700000 scf sf
(Sig) dup sw 2 div 15.768450 ex sub -71.359700 m
 gs 1 -1 sc sh gr
1.000000 1.000000 1.000000 srgb
n 12.707200 -70.809700 m 12.707200 -70.409700 l 18.829700 -70.409700 l 18.829700 -70.809700 l f
0.000000 0.000000 0.000000 srgb
n 12.707200 -70.809700 m 12.707200 -70.409700 l 18.829700 -70.409700 l 18.829700 -70.809700 l cp s
1.000000 1.000000 1.000000 srgb
n 12.707200 -70.409700 m 12.707200 -70.009700 l 18.829700 -70.009700 l 18.829700 -70.409700 l f
0.000000 0.000000 0.000000 srgb
n 12.707200 -70.409700 m 12.707200 -70.009700 l 18.829700 -70.009700 l 18.829700 -70.409700 l cp s
0.000000 slw
[] 0 sd
1.000000 1.000000 1.000000 srgb
n 21.213900 -72.963100 m 21.213900 -71.563100 l 26.903900 -71.563100 l 26.903900 -72.963100 l f
0.000000 0.000000 0.000000 srgb
n 21.213900 -72.963100 m 21.213900 -71.563100 l 26.903900 -71.563100 l 26.903900 -72.963100 l cp s
/Helvetica-Bold-latin1 ff 0.700000 scf sf
(Signal) dup sw 2 div 24.058900 ex sub -72.113100 m
 gs 1 -1 sc sh gr
1.000000 1.000000 1.000000 srgb
n 21.213900 -71.563100 m 21.213900 -71.163100 l 26.903900 -71.163100 l 26.903900 -71.563100 l f
0.000000 0.000000 0.000000 srgb
n 21.213900 -71.563100 m 21.213900 -71.163100 l 26.903900 -71.163100 l 26.903900 -71.563100 l cp s
1.000000 1.000000 1.000000 srgb
n 21.213900 -71.163100 m 21.213900 -70.063100 l 26.903900 -70.063100 l 26.903900 -71.163100 l f
0.000000 0.000000 0.000000 srgb
n 21.213900 -71.163100 m 21.213900 -70.063100 l 26.903900 -70.063100 l 26.903900 -71.163100 l cp s
/Courier-latin1 ff 0.630000 scf sf
(+run\(\): Unit) 21.313900 -70.613100 m
 gs 1 -1 sc sh gr
0.100000 slw
[0.400000] 0 sd
[0.400000] 0 sd
0 slj
0 slc
n 21.213900 -72.263100 m 20.221800 -72.263100 l 20.221800 -71.959700 l 19.164961 -71.959700 l s
0.100000 slw
[] 0 sd
0 slj
0 slc
n 19.797331 -72.209700 m 18.997331 -71.959700 l 19.797331 -71.709700 l s
/Courier-latin1 ff 0.560000 scf sf
0.100000 slw
[] 0 sd
0 slj
0 slc
n 29.097300 -64.627500 m 29.097300 -67.462500 l 26.903900 -67.462500 l 26.903900 -69.839493 l s
0.100000 slw
[] 0 sd
0 slj
0 slc
n 27.303900 -69.151297 m 26.903900 -69.951297 l 26.503900 -69.151297 l s
/Courier-latin1 ff 0.560000 scf sf
(<<modifies>>) dup sw 2 div 28.000600 ex sub -67.862500 m
 gs 1 -1 sc sh gr
0.100000 slw
[] 0 sd
0 slj
0 slc
n 13.030240 -64.860700 m 13.030240 -67.932887 l 24.058900 -67.932887 l 24.058900 -69.839493 l s
0.100000 slw
[] 0 sd
0 slj
0 slc
n 24.458900 -69.151297 m 24.058900 -69.951297 l 23.658900 -69.151297 l s
(<<modifies>>) dup sw 2 div 18.544570 ex sub -68.332887 m
 gs 1 -1 sc sh gr
0.100000 slw
[0.400000] 0 sd
[0.400000] 0 sd
0 slj
0 slc
n 29.106634 -59.269067 m 32.600000 -59.269067 l 32.600000 -48.317500 l 31.452661 -48.317500 l s
0.100000 slw
[] 0 sd
0 slj
0 slc
n 32.085031 -48.567500 m 31.285031 -48.317500 l 32.085031 -48.067500 l s
/Courier-latin1 ff 0.560000 scf sf
0.100000 slw
[0.400000] 0 sd
[0.400000] 0 sd
0 slj
0 slc
n 35.075000 -52.221843 m 36.075000 -52.221843 l 36.075000 -70.613100 l 27.239161 -70.613100 l s
0.100000 slw
[] 0 sd
0 slj
0 slc
n 27.871531 -70.863100 m 27.071531 -70.613100 l 27.871531 -70.363100 l s
/Helvetica-latin1 ff 0.560000 scf sf
(<<expose>>) 32.750000 -71.230600 m
 gs 1 -1 sc sh gr
/Helvetica-latin1 ff 0.560000 scf sf
(<<when>>) 32.673900 -53.255800 m
 gs 1 -1 sc sh gr
showpage
