%!PS-Adobe-2.0 EPSF-2.0
%%Title: D:\Paper\splc-challenge-mspl\UMLDiagram\Switch.dia
%%Creator: Dia v0.97.2
%%CreationDate: Thu May 24 13:02:39 2018
%%For: mayaretno
%%Orientation: Portrait
%%Magnification: 1.0000
%%BoundingBox: 0 0 944 1005
%%BeginSetup
%%EndSetup
%%EndComments
%%BeginProlog
[ /.notdef /.notdef /.notdef /.notdef /.notdef /.notdef /.notdef /.notdef /.notdef /.notdef
/.notdef /.notdef /.notdef /.notdef /.notdef /.notdef /.notdef /.notdef /.notdef /.notdef
/.notdef /.notdef /.notdef /.notdef /.notdef /.notdef /.notdef /.notdef /.notdef /.notdef
/.notdef /.notdef /space /exclam /quotedbl /numbersign /dollar /percent /ampersand /quoteright
/parenleft /parenright /asterisk /plus /comma /hyphen /period /slash /zero /one
/two /three /four /five /six /seven /eight /nine /colon /semicolon
/less /equal /greater /question /at /A /B /C /D /E
/F /G /H /I /J /K /L /M /N /O
/P /Q /R /S /T /U /V /W /X /Y
/Z /bracketleft /backslash /bracketright /asciicircum /underscore /quoteleft /a /b /c
/d /e /f /g /h /i /j /k /l /m
/n /o /p /q /r /s /t /u /v /w
/x /y /z /braceleft /bar /braceright /asciitilde /.notdef /.notdef /.notdef
/.notdef /.notdef /.notdef /.notdef /.notdef /.notdef /.notdef /.notdef /.notdef /.notdef
/.notdef /.notdef /.notdef /.notdef /.notdef /.notdef /.notdef /.notdef /.notdef /.notdef
/.notdef /.notdef /.notdef /.notdef /.notdef /.notdef /.notdef /.notdef /.notdef /.notdef
/space /exclamdown /cent /sterling /currency /yen /brokenbar /section /dieresis /copyright
/ordfeminine /guillemotleft /logicalnot /hyphen /registered /macron /degree /plusminus /twosuperior /threesuperior
/acute /mu /paragraph /periodcentered /cedilla /onesuperior /ordmasculine /guillemotright /onequarter /onehalf
/threequarters /questiondown /Agrave /Aacute /Acircumflex /Atilde /Adieresis /Aring /AE /Ccedilla
/Egrave /Eacute /Ecircumflex /Edieresis /Igrave /Iacute /Icircumflex /Idieresis /Eth /Ntilde
/Ograve /Oacute /Ocircumflex /Otilde /Odieresis /multiply /Oslash /Ugrave /Uacute /Ucircumflex
/Udieresis /Yacute /Thorn /germandbls /agrave /aacute /acircumflex /atilde /adieresis /aring
/ae /ccedilla /egrave /eacute /ecircumflex /edieresis /igrave /iacute /icircumflex /idieresis
/eth /ntilde /ograve /oacute /ocircumflex /otilde /odieresis /divide /oslash /ugrave
/uacute /ucircumflex /udieresis /yacute /thorn /ydieresis] /isolatin1encoding exch def
/cp {closepath} bind def
/c {curveto} bind def
/f {fill} bind def
/a {arc} bind def
/ef {eofill} bind def
/ex {exch} bind def
/gr {grestore} bind def
/gs {gsave} bind def
/sa {save} bind def
/rs {restore} bind def
/l {lineto} bind def
/m {moveto} bind def
/rm {rmoveto} bind def
/n {newpath} bind def
/s {stroke} bind def
/sh {show} bind def
/slc {setlinecap} bind def
/slj {setlinejoin} bind def
/slw {setlinewidth} bind def
/srgb {setrgbcolor} bind def
/rot {rotate} bind def
/sc {scale} bind def
/sd {setdash} bind def
/ff {findfont} bind def
/sf {setfont} bind def
/scf {scalefont} bind def
/sw {stringwidth pop} bind def
/tr {translate} bind def

/ellipsedict 8 dict def
ellipsedict /mtrx matrix put
/ellipse
{ ellipsedict begin
   /endangle exch def
   /startangle exch def
   /yrad exch def
   /xrad exch def
   /y exch def
   /x exch def   /savematrix mtrx currentmatrix def
   x y tr xrad yrad sc
   0 0 1 startangle endangle arc
   savematrix setmatrix
   end
} def

/mergeprocs {
dup length
3 -1 roll
dup
length
dup
5 1 roll
3 -1 roll
add
array cvx
dup
3 -1 roll
0 exch
putinterval
dup
4 2 roll
putinterval
} bind def
/Times-Roman-latin1
    /Times-Roman findfont
    dup length dict begin
	{1 index /FID ne {def} {pop pop} ifelse} forall
	/Encoding isolatin1encoding def
    currentdict end
definefont pop
/Times-Italic-latin1
    /Times-Italic findfont
    dup length dict begin
	{1 index /FID ne {def} {pop pop} ifelse} forall
	/Encoding isolatin1encoding def
    currentdict end
definefont pop
/Times-Bold-latin1
    /Times-Bold findfont
    dup length dict begin
	{1 index /FID ne {def} {pop pop} ifelse} forall
	/Encoding isolatin1encoding def
    currentdict end
definefont pop
/Times-BoldItalic-latin1
    /Times-BoldItalic findfont
    dup length dict begin
	{1 index /FID ne {def} {pop pop} ifelse} forall
	/Encoding isolatin1encoding def
    currentdict end
definefont pop
/AvantGarde-Gothic-latin1
    /AvantGarde-Gothic findfont
    dup length dict begin
	{1 index /FID ne {def} {pop pop} ifelse} forall
	/Encoding isolatin1encoding def
    currentdict end
definefont pop
/AvantGarde-BookOblique-latin1
    /AvantGarde-BookOblique findfont
    dup length dict begin
	{1 index /FID ne {def} {pop pop} ifelse} forall
	/Encoding isolatin1encoding def
    currentdict end
definefont pop
/AvantGarde-Demi-latin1
    /AvantGarde-Demi findfont
    dup length dict begin
	{1 index /FID ne {def} {pop pop} ifelse} forall
	/Encoding isolatin1encoding def
    currentdict end
definefont pop
/AvantGarde-DemiOblique-latin1
    /AvantGarde-DemiOblique findfont
    dup length dict begin
	{1 index /FID ne {def} {pop pop} ifelse} forall
	/Encoding isolatin1encoding def
    currentdict end
definefont pop
/Bookman-Light-latin1
    /Bookman-Light findfont
    dup length dict begin
	{1 index /FID ne {def} {pop pop} ifelse} forall
	/Encoding isolatin1encoding def
    currentdict end
definefont pop
/Bookman-LightItalic-latin1
    /Bookman-LightItalic findfont
    dup length dict begin
	{1 index /FID ne {def} {pop pop} ifelse} forall
	/Encoding isolatin1encoding def
    currentdict end
definefont pop
/Bookman-Demi-latin1
    /Bookman-Demi findfont
    dup length dict begin
	{1 index /FID ne {def} {pop pop} ifelse} forall
	/Encoding isolatin1encoding def
    currentdict end
definefont pop
/Bookman-DemiItalic-latin1
    /Bookman-DemiItalic findfont
    dup length dict begin
	{1 index /FID ne {def} {pop pop} ifelse} forall
	/Encoding isolatin1encoding def
    currentdict end
definefont pop
/Courier-latin1
    /Courier findfont
    dup length dict begin
	{1 index /FID ne {def} {pop pop} ifelse} forall
	/Encoding isolatin1encoding def
    currentdict end
definefont pop
/Courier-Oblique-latin1
    /Courier-Oblique findfont
    dup length dict begin
	{1 index /FID ne {def} {pop pop} ifelse} forall
	/Encoding isolatin1encoding def
    currentdict end
definefont pop
/Courier-Bold-latin1
    /Courier-Bold findfont
    dup length dict begin
	{1 index /FID ne {def} {pop pop} ifelse} forall
	/Encoding isolatin1encoding def
    currentdict end
definefont pop
/Courier-BoldOblique-latin1
    /Courier-BoldOblique findfont
    dup length dict begin
	{1 index /FID ne {def} {pop pop} ifelse} forall
	/Encoding isolatin1encoding def
    currentdict end
definefont pop
/Helvetica-latin1
    /Helvetica findfont
    dup length dict begin
	{1 index /FID ne {def} {pop pop} ifelse} forall
	/Encoding isolatin1encoding def
    currentdict end
definefont pop
/Helvetica-Oblique-latin1
    /Helvetica-Oblique findfont
    dup length dict begin
	{1 index /FID ne {def} {pop pop} ifelse} forall
	/Encoding isolatin1encoding def
    currentdict end
definefont pop
/Helvetica-Bold-latin1
    /Helvetica-Bold findfont
    dup length dict begin
	{1 index /FID ne {def} {pop pop} ifelse} forall
	/Encoding isolatin1encoding def
    currentdict end
definefont pop
/Helvetica-BoldOblique-latin1
    /Helvetica-BoldOblique findfont
    dup length dict begin
	{1 index /FID ne {def} {pop pop} ifelse} forall
	/Encoding isolatin1encoding def
    currentdict end
definefont pop
/Helvetica-Narrow-latin1
    /Helvetica-Narrow findfont
    dup length dict begin
	{1 index /FID ne {def} {pop pop} ifelse} forall
	/Encoding isolatin1encoding def
    currentdict end
definefont pop
/Helvetica-Narrow-Oblique-latin1
    /Helvetica-Narrow-Oblique findfont
    dup length dict begin
	{1 index /FID ne {def} {pop pop} ifelse} forall
	/Encoding isolatin1encoding def
    currentdict end
definefont pop
/Helvetica-Narrow-Bold-latin1
    /Helvetica-Narrow-Bold findfont
    dup length dict begin
	{1 index /FID ne {def} {pop pop} ifelse} forall
	/Encoding isolatin1encoding def
    currentdict end
definefont pop
/Helvetica-Narrow-BoldOblique-latin1
    /Helvetica-Narrow-BoldOblique findfont
    dup length dict begin
	{1 index /FID ne {def} {pop pop} ifelse} forall
	/Encoding isolatin1encoding def
    currentdict end
definefont pop
/NewCenturySchlbk-Roman-latin1
    /NewCenturySchlbk-Roman findfont
    dup length dict begin
	{1 index /FID ne {def} {pop pop} ifelse} forall
	/Encoding isolatin1encoding def
    currentdict end
definefont pop
/NewCenturySchlbk-Italic-latin1
    /NewCenturySchlbk-Italic findfont
    dup length dict begin
	{1 index /FID ne {def} {pop pop} ifelse} forall
	/Encoding isolatin1encoding def
    currentdict end
definefont pop
/NewCenturySchlbk-Bold-latin1
    /NewCenturySchlbk-Bold findfont
    dup length dict begin
	{1 index /FID ne {def} {pop pop} ifelse} forall
	/Encoding isolatin1encoding def
    currentdict end
definefont pop
/NewCenturySchlbk-BoldItalic-latin1
    /NewCenturySchlbk-BoldItalic findfont
    dup length dict begin
	{1 index /FID ne {def} {pop pop} ifelse} forall
	/Encoding isolatin1encoding def
    currentdict end
definefont pop
/Palatino-Roman-latin1
    /Palatino-Roman findfont
    dup length dict begin
	{1 index /FID ne {def} {pop pop} ifelse} forall
	/Encoding isolatin1encoding def
    currentdict end
definefont pop
/Palatino-Italic-latin1
    /Palatino-Italic findfont
    dup length dict begin
	{1 index /FID ne {def} {pop pop} ifelse} forall
	/Encoding isolatin1encoding def
    currentdict end
definefont pop
/Palatino-Bold-latin1
    /Palatino-Bold findfont
    dup length dict begin
	{1 index /FID ne {def} {pop pop} ifelse} forall
	/Encoding isolatin1encoding def
    currentdict end
definefont pop
/Palatino-BoldItalic-latin1
    /Palatino-BoldItalic findfont
    dup length dict begin
	{1 index /FID ne {def} {pop pop} ifelse} forall
	/Encoding isolatin1encoding def
    currentdict end
definefont pop
/Symbol-latin1
    /Symbol findfont
definefont pop
/ZapfChancery-MediumItalic-latin1
    /ZapfChancery-MediumItalic findfont
    dup length dict begin
	{1 index /FID ne {def} {pop pop} ifelse} forall
	/Encoding isolatin1encoding def
    currentdict end
definefont pop
/ZapfDingbats-latin1
    /ZapfDingbats findfont
    dup length dict begin
	{1 index /FID ne {def} {pop pop} ifelse} forall
	/Encoding isolatin1encoding def
    currentdict end
definefont pop
28.346000 -28.346000 scale
-5.825000 -37.592500 translate
%%EndProlog


0.000000 slw
[] 0 sd
1.000000 1.000000 1.000000 srgb
n 16.539800 8.095000 m 16.539800 9.495000 l 26.122300 9.495000 l 26.122300 8.095000 l f
0.000000 0.000000 0.000000 srgb
n 16.539800 8.095000 m 16.539800 9.495000 l 26.122300 9.495000 l 26.122300 8.095000 l cp s
/Helvetica-Bold-latin1 ff 0.700000 scf sf
(Switch) dup sw 2 div 21.331050 ex sub 8.845000 m
 gs 1 -1 sc sh gr
1.000000 1.000000 1.000000 srgb
n 16.539800 9.495000 m 16.539800 9.895000 l 26.122300 9.895000 l 26.122300 9.495000 l f
0.000000 0.000000 0.000000 srgb
n 16.539800 9.495000 m 16.539800 9.895000 l 26.122300 9.895000 l 26.122300 9.495000 l cp s
1.000000 1.000000 1.000000 srgb
n 16.539800 9.895000 m 16.539800 11.895000 l 26.122300 11.895000 l 26.122300 9.895000 l f
0.000000 0.000000 0.000000 srgb
n 16.539800 9.895000 m 16.539800 11.895000 l 26.122300 11.895000 l 26.122300 9.895000 l cp s
/Courier-latin1 ff 0.630000 scf sf
(+run\(\): Unit) 16.639800 10.490000 m
 gs 1 -1 sc sh gr
(+register\(sig:Signal\)) 16.639800 11.390000 m
 gs 1 -1 sc sh gr
0.000000 slw
[] 0 sd
1.000000 1.000000 1.000000 srgb
n 15.889800 2.195000 m 15.889800 4.495000 l 25.472300 4.495000 l 25.472300 2.195000 l f
0.000000 0.000000 0.000000 srgb
n 15.889800 2.195000 m 15.889800 4.495000 l 25.472300 4.495000 l 25.472300 2.195000 l cp s
/Courier-latin1 ff 0.630000 scf sf
(<<interface>>) dup sw 2 div 20.681050 ex sub 2.890000 m
 gs 1 -1 sc sh gr
/Helvetica-Bold-latin1 ff 0.700000 scf sf
(Switch) dup sw 2 div 20.681050 ex sub 3.845000 m
 gs 1 -1 sc sh gr
1.000000 1.000000 1.000000 srgb
n 15.889800 4.495000 m 15.889800 4.895000 l 25.472300 4.895000 l 25.472300 4.495000 l f
0.000000 0.000000 0.000000 srgb
n 15.889800 4.495000 m 15.889800 4.895000 l 25.472300 4.895000 l 25.472300 4.495000 l cp s
1.000000 1.000000 1.000000 srgb
n 15.889800 4.895000 m 15.889800 5.995000 l 25.472300 5.995000 l 25.472300 4.895000 l f
0.000000 0.000000 0.000000 srgb
n 15.889800 4.895000 m 15.889800 5.995000 l 25.472300 5.995000 l 25.472300 4.895000 l cp s
/Courier-latin1 ff 0.630000 scf sf
(+register\(sig:Signal\)) 15.989800 5.490000 m
 gs 1 -1 sc sh gr
0.100000 slw
[1.000000] 0 sd
[0.400000] 0 sd
0 slj
0 slc
n 20.684800 7.960000 m 20.684800 7.177500 l 20.681050 7.177500 l 20.681050 6.330261 l s
0.100000 slw
[] 0 sd
0 slj
0 slc
n 20.931050 6.962631 m 20.681050 6.162631 l 20.431050 6.962631 l s
/Courier-latin1 ff 0.560000 scf sf
0.000000 slw
[] 0 sd
1.000000 1.000000 1.000000 srgb
n 9.089800 16.295000 m 9.089800 21.445000 l 21.884900 21.445000 l 21.884900 16.295000 l f
0.000000 0.000000 0.000000 srgb
n 9.089800 16.295000 m 9.089800 21.445000 l 21.884900 21.445000 l 21.884900 16.295000 l cp s
1.000000 1.000000 1.000000 srgb
n 9.089800 14.495000 m 9.089800 16.295000 l 13.524800 16.295000 l 13.524800 14.495000 l f
0.000000 0.000000 0.000000 srgb
n 9.089800 14.495000 m 9.089800 16.295000 l 13.524800 16.295000 l 13.524800 14.495000 l cp s
/Courier-latin1 ff 0.560000 scf sf
(<<delta>>) 9.189800 15.095000 m
 gs 1 -1 sc sh gr
(DElectricSw) 9.189800 15.895000 m
 gs 1 -1 sc sh gr
0.000000 slw
[] 0 sd
1.000000 1.000000 1.000000 srgb
n 23.013920 16.480000 m 23.013920 21.595000 l 35.769900 21.595000 l 35.769900 16.480000 l f
0.000000 0.000000 0.000000 srgb
n 23.013920 16.480000 m 23.013920 21.595000 l 35.769900 21.595000 l 35.769900 16.480000 l cp s
1.000000 1.000000 1.000000 srgb
n 23.013920 14.680000 m 23.013920 16.480000 l 26.678920 16.480000 l 26.678920 14.680000 l f
0.000000 0.000000 0.000000 srgb
n 23.013920 14.680000 m 23.013920 16.480000 l 26.678920 16.480000 l 26.678920 14.680000 l cp s
/Courier-latin1 ff 0.560000 scf sf
(<<delta>>) 23.113920 15.280000 m
 gs 1 -1 sc sh gr
(DManualSw) 23.113920 16.080000 m
 gs 1 -1 sc sh gr
0.000000 slw
[] 0 sd
1.000000 1.000000 1.000000 srgb
n 9.844800 17.280000 m 9.844800 19.580000 l 21.157300 19.580000 l 21.157300 17.280000 l f
0.000000 0.000000 0.000000 srgb
n 9.844800 17.280000 m 9.844800 19.580000 l 21.157300 19.580000 l 21.157300 17.280000 l cp s
/Courier-latin1 ff 0.630000 scf sf
(<<modifiedClass>>) dup sw 2 div 15.501050 ex sub 17.975000 m
 gs 1 -1 sc sh gr
/Helvetica-Bold-latin1 ff 0.700000 scf sf
(Switch) dup sw 2 div 15.501050 ex sub 18.930000 m
 gs 1 -1 sc sh gr
1.000000 1.000000 1.000000 srgb
n 9.844800 19.580000 m 9.844800 19.980000 l 21.157300 19.980000 l 21.157300 19.580000 l f
0.000000 0.000000 0.000000 srgb
n 9.844800 19.580000 m 9.844800 19.980000 l 21.157300 19.980000 l 21.157300 19.580000 l cp s
1.000000 1.000000 1.000000 srgb
n 9.844800 19.980000 m 9.844800 21.080000 l 21.157300 21.080000 l 21.157300 19.980000 l f
0.000000 0.000000 0.000000 srgb
n 9.844800 19.980000 m 9.844800 21.080000 l 21.157300 21.080000 l 21.157300 19.980000 l cp s
/Courier-latin1 ff 0.630000 scf sf
(+<<modifies>> run\(\): Unit) 9.944800 20.575000 m
 gs 1 -1 sc sh gr
0.000000 slw
[] 0 sd
1.000000 1.000000 1.000000 srgb
n 23.594800 17.230000 m 23.594800 19.530000 l 34.907300 19.530000 l 34.907300 17.230000 l f
0.000000 0.000000 0.000000 srgb
n 23.594800 17.230000 m 23.594800 19.530000 l 34.907300 19.530000 l 34.907300 17.230000 l cp s
/Courier-latin1 ff 0.630000 scf sf
(<<modifiedClass>>) dup sw 2 div 29.251050 ex sub 17.925000 m
 gs 1 -1 sc sh gr
/Helvetica-Bold-latin1 ff 0.700000 scf sf
(Switch) dup sw 2 div 29.251050 ex sub 18.880000 m
 gs 1 -1 sc sh gr
1.000000 1.000000 1.000000 srgb
n 23.594800 19.530000 m 23.594800 19.930000 l 34.907300 19.930000 l 34.907300 19.530000 l f
0.000000 0.000000 0.000000 srgb
n 23.594800 19.530000 m 23.594800 19.930000 l 34.907300 19.930000 l 34.907300 19.530000 l cp s
1.000000 1.000000 1.000000 srgb
n 23.594800 19.930000 m 23.594800 21.030000 l 34.907300 21.030000 l 34.907300 19.930000 l f
0.000000 0.000000 0.000000 srgb
n 23.594800 19.930000 m 23.594800 21.030000 l 34.907300 21.030000 l 34.907300 19.930000 l cp s
/Courier-latin1 ff 0.630000 scf sf
(+<<modifies>> run\(\): Unit) 23.694800 20.525000 m
 gs 1 -1 sc sh gr
0.100000 slw
[] 0 sd
0 slj
0 slc
n 15.501050 17.280000 m 15.501050 14.345000 l 19.100000 14.345000 l 19.100000 12.173607 l s
0.100000 slw
[] 0 sd
0 slj
0 slc
n 19.500000 12.861803 m 19.100000 12.061803 l 18.700000 12.861803 l s
/Courier-latin1 ff 0.560000 scf sf
(<<modifies>>) dup sw 2 div 17.300525 ex sub 14.195000 m
 gs 1 -1 sc sh gr
0.100000 slw
[] 0 sd
0 slj
0 slc
n 29.251050 17.180295 m 29.251050 14.045000 l 21.439800 14.045000 l 21.439800 12.268607 l s
0.100000 slw
[] 0 sd
0 slj
0 slc
n 21.839800 12.956803 m 21.439800 12.156803 l 21.039800 12.956803 l s
(<<modifies>>) dup sw 2 div 25.345425 ex sub 13.895000 m
 gs 1 -1 sc sh gr
0.100000 slw
[] 0 sd
1.000000 1.000000 1.000000 srgb
n 14.324900 32.692500 m 14.324900 37.180278 l 21.642400 37.180278 l 21.642400 32.692500 l f
0.000000 0.000000 0.000000 srgb
n 14.324900 32.692500 m 14.324900 37.180278 l 21.642400 37.180278 l 21.642400 32.692500 l cp s
1.000000 1.000000 1.000000 srgb
n 13.324900 33.886389 m 13.324900 34.586389 l 15.324900 34.586389 l 15.324900 33.886389 l f
0.000000 0.000000 0.000000 srgb
n 13.324900 33.886389 m 13.324900 34.586389 l 15.324900 34.586389 l 15.324900 33.886389 l cp s
1.000000 1.000000 1.000000 srgb
n 13.324900 35.286389 m 13.324900 35.986389 l 15.324900 35.986389 l 15.324900 35.286389 l f
0.000000 0.000000 0.000000 srgb
n 13.324900 35.286389 m 13.324900 35.986389 l 15.324900 35.986389 l 15.324900 35.286389 l cp s
/Helvetica-latin1 ff 0.691444 scf sf
(<<feature>>) 15.724900 33.927444 m
 gs 1 -1 sc sh gr
(    Electric) 15.724900 34.915222 m
 gs 1 -1 sc sh gr
0.100000 slw
[] 0 sd
1.000000 1.000000 1.000000 srgb
n 25.629900 32.527500 m 25.629900 37.015278 l 32.947400 37.015278 l 32.947400 32.527500 l f
0.000000 0.000000 0.000000 srgb
n 25.629900 32.527500 m 25.629900 37.015278 l 32.947400 37.015278 l 32.947400 32.527500 l cp s
1.000000 1.000000 1.000000 srgb
n 24.629900 33.721389 m 24.629900 34.421389 l 26.629900 34.421389 l 26.629900 33.721389 l f
0.000000 0.000000 0.000000 srgb
n 24.629900 33.721389 m 24.629900 34.421389 l 26.629900 34.421389 l 26.629900 33.721389 l cp s
1.000000 1.000000 1.000000 srgb
n 24.629900 35.121389 m 24.629900 35.821389 l 26.629900 35.821389 l 26.629900 35.121389 l f
0.000000 0.000000 0.000000 srgb
n 24.629900 35.121389 m 24.629900 35.821389 l 26.629900 35.821389 l 26.629900 35.121389 l cp s
/Helvetica-latin1 ff 0.691444 scf sf
(<<feature>>) 27.029900 33.762444 m
 gs 1 -1 sc sh gr
(    Manual) 27.029900 34.750222 m
 gs 1 -1 sc sh gr
0.100000 slw
[] 0 sd
1.000000 1.000000 1.000000 srgb
n 14.274900 25.942500 m 14.274900 30.430278 l 21.782400 30.430278 l 21.782400 25.942500 l f
0.000000 0.000000 0.000000 srgb
n 14.274900 25.942500 m 14.274900 30.430278 l 21.782400 30.430278 l 21.782400 25.942500 l cp s
1.000000 1.000000 1.000000 srgb
n 13.274900 27.136389 m 13.274900 27.836389 l 15.274900 27.836389 l 15.274900 27.136389 l f
0.000000 0.000000 0.000000 srgb
n 13.274900 27.136389 m 13.274900 27.836389 l 15.274900 27.836389 l 15.274900 27.136389 l cp s
1.000000 1.000000 1.000000 srgb
n 13.274900 28.536389 m 13.274900 29.236389 l 15.274900 29.236389 l 15.274900 28.536389 l f
0.000000 0.000000 0.000000 srgb
n 13.274900 28.536389 m 13.274900 29.236389 l 15.274900 29.236389 l 15.274900 28.536389 l cp s
/Helvetica-latin1 ff 0.691444 scf sf
(<<product>>) 15.674900 27.177444 m
 gs 1 -1 sc sh gr
(   ESwitch) 15.674900 28.165222 m
 gs 1 -1 sc sh gr
/Helvetica-latin1 ff 0.691444 scf sf
0.100000 slw
[] 0 sd
1.000000 1.000000 1.000000 srgb
n 25.629900 25.777500 m 25.629900 30.265278 l 33.137400 30.265278 l 33.137400 25.777500 l f
0.000000 0.000000 0.000000 srgb
n 25.629900 25.777500 m 25.629900 30.265278 l 33.137400 30.265278 l 33.137400 25.777500 l cp s
1.000000 1.000000 1.000000 srgb
n 24.629900 26.971389 m 24.629900 27.671389 l 26.629900 27.671389 l 26.629900 26.971389 l f
0.000000 0.000000 0.000000 srgb
n 24.629900 26.971389 m 24.629900 27.671389 l 26.629900 27.671389 l 26.629900 26.971389 l cp s
1.000000 1.000000 1.000000 srgb
n 24.629900 28.371389 m 24.629900 29.071389 l 26.629900 29.071389 l 26.629900 28.371389 l f
0.000000 0.000000 0.000000 srgb
n 24.629900 28.371389 m 24.629900 29.071389 l 26.629900 29.071389 l 26.629900 28.371389 l cp s
/Helvetica-latin1 ff 0.691444 scf sf
(<<product>>) 27.029900 27.012444 m
 gs 1 -1 sc sh gr
(   MSwitch) 27.029900 28.000222 m
 gs 1 -1 sc sh gr
/Helvetica-latin1 ff 0.691444 scf sf
0.100000 slw
[0.400000] 0 sd
[0.400000] 0 sd
0 slj
0 slc
n 17.983650 32.692500 m 17.983650 31.761389 l 18.028650 31.761389 l 18.028650 30.765539 l s
0.100000 slw
[] 0 sd
0 slj
0 slc
n 18.278650 31.397908 m 18.028650 30.597908 l 17.778650 31.397908 l s
/Courier-latin1 ff 0.560000 scf sf
0.100000 slw
[0.400000] 0 sd
[0.400000] 0 sd
0 slj
0 slc
n 28.288650 32.477135 m 28.288650 31.596401 l 28.383650 31.596401 l 28.383650 30.650928 l s
0.100000 slw
[] 0 sd
0 slj
0 slc
n 28.633650 31.283297 m 28.383650 30.483297 l 28.133650 31.283297 l s
0.000000 slw
[] 0 sd
[] 0 sd
0 slj
n 8.474900 22.270000 m 8.474900 37.592500 l 35.465100 37.592500 l 35.465100 22.270000 l cp s
0.000000 slw
[] 0 sd
[] 0 sd
0 slj
1.000000 1.000000 1.000000 srgb
n 6.974900 26.492500 m 6.974900 28.042500 l 9.958533 28.042500 l 9.958533 26.492500 l f
0.000000 0.000000 0.000000 srgb
n 6.974900 26.492500 m 6.974900 28.042500 l 9.958533 28.042500 l 9.958533 26.492500 l cp s
0.000000 slw
[] 0 sd
[] 0 sd
0 slj
1.000000 1.000000 1.000000 srgb
n 6.974900 30.142500 m 6.974900 31.542500 l 10.408533 31.542500 l 10.408533 30.142500 l f
0.000000 0.000000 0.000000 srgb
n 6.974900 30.142500 m 6.974900 31.542500 l 10.408533 31.542500 l 10.408533 30.142500 l cp s
/Helvetica-latin1 ff 0.691444 scf sf
/Helvetica-Bold-latin1 ff 0.691444 scf sf
(<<productline>>) dup sw 2 div 21.174900 ex sub 23.419944 m
 gs 1 -1 sc sh gr
(SwitchLine) dup sw 2 div 21.174900 ex sub 24.407722 m
 gs 1 -1 sc sh gr
/Helvetica-latin1 ff 0.691444 scf sf
/Helvetica-latin1 ff 0.691444 scf sf
/Helvetica-latin1 ff 0.691444 scf sf
/Helvetica-latin1 ff 0.691444 scf sf
/Helvetica-latin1 ff 0.691444 scf sf
/Helvetica-latin1 ff 0.691444 scf sf
/Helvetica-latin1 ff 0.691444 scf sf
/Helvetica-latin1 ff 0.691444 scf sf
0.100000 slw
[1.000000] 0 sd
[0.400000] 0 sd
0 slj
0 slc
n 35.769900 19.037500 m 37.475000 19.037500 l 37.475000 34.771389 l 33.282661 34.771389 l s
0.100000 slw
[] 0 sd
0 slj
0 slc
n 33.915031 34.521389 m 33.115031 34.771389 l 33.915031 35.021389 l s
/Courier-latin1 ff 0.560000 scf sf
(<<when>>) 37.575000 26.604444 m
 gs 1 -1 sc sh gr
0.100000 slw
[0.400000] 0 sd
[0.400000] 0 sd
0 slj
0 slc
n 9.089800 18.870000 m 5.875000 18.870000 l 5.875000 34.236389 l 12.989639 34.236389 l s
0.100000 slw
[] 0 sd
0 slj
0 slc
n 12.357269 34.486389 m 13.157269 34.236389 l 12.357269 33.986389 l s
(when) 5.975000 26.253194 m
 gs 1 -1 sc sh gr
showpage
